[{
  "_id": {
    "$oid": "64ea6e3e708efe42f6ab9b00"
  },
  "name": "РПЗ",
  "duration": "36",
  "teacher_ID": "64ea6ec8708efe42f6ab9b03"
},
{
  "_id": {
    "$oid": "64ea6e90708efe42f6ab9b01"
  },
  "name": "Design",
  "duration": "12",
  "teacher_ID": "64ea6f0c708efe42f6ab9b04"
}]